{
  "collectionName": "components_base_texts",
  "info": {
    "displayName": "text",
    "description": ""
  },
  "options": {},
  "attributes": {
    "ancre": {
      "type": "string",
      "regex": "^[a-z0-9]+(?:[_-][a-z0-9]+)*$"
    },
    "text": {
      "type": "customField",
      "options": {
        "preset": "custom"
      },
      "customField": "plugin::ckeditor5.CKEditor"
    },
    "titre": {
      "type": "string"
    }
  }
}
